Portfolio • PKG
…
Portfolio

returns_monthly <- c("URTH", "EEM", "^NDX") %>%
    tq_get(get  = "stock.prices",
           from = "2015-01-01",
           to   = today) %>%
    group_by(symbol) %>%
    tq_transmute(select     = adjusted, 
                 mutate_fun = periodReturn, 
                 period     = "monthly", 
                 col_rename = "Ra")
returns_monthly

## # A tibble: 216 x 3
## # Groups:   symbol [3]
##    symbol date             Ra
##    <chr>  <date>        <dbl>
##  1 URTH   2015-01-30 -0.0248 
##  2 URTH   2015-02-27  0.0668 
##  3 URTH   2015-03-31 -0.0144 
##  4 URTH   2015-04-30  0.0178 
##  5 URTH   2015-05-29  0.00428
##  6 URTH   2015-06-30 -0.0271 
##  7 URTH   2015-07-31  0.0263 
##  8 URTH   2015-08-31 -0.0657 
##  9 URTH   2015-09-30 -0.0355 
## 10 URTH   2015-10-30  0.0696 
## # … with 206 more rows
…
returns_monthly_multi <- returns_monthly %>%
    tq_repeat_df(n = 3)
returns_monthly_multi

## # A tibble: 648 x 4
## # Groups:   portfolio [3]
##    portfolio symbol date             Ra
##        <int> <chr>  <date>        <dbl>
##  1         1 URTH   2015-01-30 -0.0248 
##  2         1 URTH   2015-02-27  0.0668 
##  3         1 URTH   2015-03-31 -0.0144 
##  4         1 URTH   2015-04-30  0.0178 
##  5         1 URTH   2015-05-29  0.00428
##  6         1 URTH   2015-06-30 -0.0271 
##  7         1 URTH   2015-07-31  0.0263 
##  8         1 URTH   2015-08-31 -0.0657 
##  9         1 URTH   2015-09-30 -0.0355 
## 10         1 URTH   2015-10-30  0.0696 
## # … with 638 more rows

portfolio_returns_monthly_multi <- returns_monthly_multi %>%
    tq_portfolio(assets_col  = symbol, 
                 returns_col = Ra, 
                 weights     = weights_table, 
                 col_rename  = "Ra")
portfolio_returns_monthly_multi

## # A tibble: 216 x 3
## # Groups:   portfolio [3]
##    portfolio date             Ra
##        <int> <date>        <dbl>
##  1         1 2015-01-30 -0.0170 
##  2         1 2015-02-27  0.0610 
##  3         1 2015-03-31 -0.0145 
##  4         1 2015-04-30  0.0306 
##  5         1 2015-05-29 -0.00755
##  6         1 2015-06-30 -0.0277 
##  7         1 2015-07-31  0.00380
##  8         1 2015-08-31 -0.0710 
##  9         1 2015-09-30 -0.0346 
## 10         1 2015-10-30  0.0683 
## # … with 206 more rows
…
